{
  "code": "000",
  "msg": "ok",
  "data": {
    "itemRelations": [
      {
        "itemId": "1937432584023756807",
        "itemName": "Roast Chix Bento Rice (Onl)",
        "itemImage": "https://resto-images-sg.s3.ap-southeast-1.amazonaws.com/c400000210/b1890221491992203266/246707-20250725.jpg",
        "itemSizeName": "...",
        "itemType": "Item",
        "menuGroupName": "OK Bento (Del)",
        "skuId": "1937432584023756808",
        "skuCode": "",
        "price": "9.50",
        "itemPath": "1937434439277658116/1937434439315406850/9e9d21206bcc09107f33434864cd261b",
        "syncStatus": "SYNCED",
        "itemStatus": 1,
        "trdItemId": "1937432584023756807",
        "trdPosItemId": null,
        "trdItemName": "Roast Chix Bento Rice (Del)",
        "trdItemImage": "https://resto-images-sg.s3.ap-southeast-1.amazonaws.com/c400000210/b1890221491992203266/954957-20250725.jpg",
        "trdItemSizeName": "",
        "trdItemType": "Single",
        "trdSubMenuName": "OK Bento (Del)",
        "trdSkuId": "1937432584023756808",
        "trdSkuCode": "",
        "trdPrice": "9.5"
      },
      {
        "itemId": "1937432583843401732",
        "itemName": "Roast Chix Drumstick Bento Rice (Onl)",
        "itemImage": "https://resto-images-sg.s3.ap-southeast-1.amazonaws.com/c400000210/b1890221491992203266/976662-20250725.jpg",
        "itemSizeName": "...",
        "itemType": "Item",
        "menuGroupName": "OK Bento (Del)",
        "skuId": "1937432583843401733",
        "skuCode": "",
        "price": "11.50",
        "itemPath": "1937434439277658116/1937434439315406850/5be2a7c7531556a6e1d32f264d135de4",
        "syncStatus": "SYNCED",
        "itemStatus": 1,
        "trdItemId": "1937432583843401732",
        "trdPosItemId": null,
        "trdItemName": "Roast Chix Drumstick Bento Rice (Del)",
        "trdItemImage": "https://resto-images-sg.s3.ap-southeast-1.amazonaws.com/c400000210/b1890221491992203266/876167-20250725.jpg",
        "trdItemSizeName": "",
        "trdItemType": "Single",
        "trdSubMenuName": "OK Bento (Del)",
        "trdSkuId": "1937432583843401733",
        "trdSkuCode": "",
        "trdPrice": "11.5"
      },
      {
        "itemId": "1937432583667240964",
        "itemName": "Roast Chix XXL DBL Wings Bento Rice (Onl)",
        "itemImage": "https://resto-images-sg.s3.ap-southeast-1.amazonaws.com/c400000210/b1890221491992203266/194265-20250725.jpg",
        "itemSizeName": "...",
        "itemType": "Item",
        "menuGroupName": "OK Bento (Del)",
        "skuId": "1937432583667240965",
        "skuCode": "",
        "price": "11.50",
        "itemPath": "1937434439277658116/1937434439315406850/fb3da1478905d7b458ea6c91d31f64c3",
        "syncStatus": "SYNCED",
        "itemStatus": 1,
        "trdItemId": "1937432583667240964",
        "trdPosItemId": null,
        "trdItemName": "Roast Chix XXL DBL Wings Bento Rice (Del)",
        "trdItemImage": "https://resto-images-sg.s3.ap-southeast-1.amazonaws.com/c400000210/b1890221491992203266/514040-20250725.jpg",
        "trdItemSizeName": "",
        "trdItemType": "Single",
        "trdSubMenuName": "OK Bento (Del)",
        "trdSkuId": "1937432583667240965",
        "trdSkuCode": "",
        "trdPrice": "11.5"
      },
      {
        "itemId": "1937432583516246018",
        "itemName": "Roast XXL Chix Thigh Bento Rice (Onl)",
        "itemImage": "https://resto-images-sg.s3.ap-southeast-1.amazonaws.com/c400000210/b1890221491992203266/519066-20250725.jpg",
        "itemSizeName": "...",
        "itemType": "Item",
        "menuGroupName": "OK Bento (Del)",
        "skuId": "1937432583516246019",
        "skuCode": "",
        "price": "14.00",
        "itemPath": "1937434439277658116/1937434439315406850/f1f8ab47e7c92396a67b345ad71aa3cb",
        "syncStatus": "SYNCED",
        "itemStatus": 1,
        "trdItemId": "1937432583516246018",
        "trdPosItemId": null,
        "trdItemName": "Roast XXL Chix Thigh Bento Rice (Del)",
        "trdItemImage": "https://resto-images-sg.s3.ap-southeast-1.amazonaws.com/c400000210/b1890221491992203266/254215-20250725.jpg",
        "trdItemSizeName": "",
        "trdItemType": "Single",
        "trdSubMenuName": "OK Bento (Del)",
        "trdSkuId": "1937432583516246019",
        "trdSkuCode": "",
        "trdPrice": "14"
      },
      {
        "itemId": "1937432583356862472",
        "itemName": "Steam Chix Bento Rice (Onl)",
        "itemImage": "https://resto-images-sg.s3.ap-southeast-1.amazonaws.com/c400000210/b1890221491992203266/678683-20250725.jpg",
        "itemSizeName": "...",
        "itemType": "Item",
        "menuGroupName": "OK Bento (Del)",
        "skuId": "1937432583356862473",
        "skuCode": "",
        "price": "9.50",
        "itemPath": "1937434439277658116/1937434439315406850/9848e1fb1ac47d7c18c594c8b0f1b9e5",
        "syncStatus": "SYNCED",
        "itemStatus": 1,
        "trdItemId": "1937432583356862472",
        "trdPosItemId": null,
        "trdItemName": "Steam Chix Bento Rice (Del)",
        "trdItemImage": "https://resto-images-sg.s3.ap-southeast-1.amazonaws.com/image/c400000210/b1890221491992203266/20250725-23850488.jpg",
        "trdItemSizeName": "",
        "trdItemType": "Single",
        "trdSubMenuName": "OK Bento (Del)",
        "trdSkuId": "1937432583356862473",
        "trdSkuCode": "",
        "trdPrice": "9.5"
      },
      {
        "itemId": "1937432583218450437",
        "itemName": "Steam Chix Drumstick Bento Rice (Onl)",
        "itemImage": "https://resto-images-sg.s3.ap-southeast-1.amazonaws.com/c400000210/b1890221491992203266/364757-20250725.jpg",
        "itemSizeName": "...",
        "itemType": "Item",
        "menuGroupName": "OK Bento (Del)",
        "skuId": "1937432583218450438",
        "skuCode": "",
        "price": "11.50",
        "itemPath": "1937434439277658116/1937434439315406850/0eec46ad67b42b1db7b7adf8f62b0636",
        "syncStatus": "SYNCED",
        "itemStatus": 1,
        "trdItemId": "1937432583218450437",
        "trdPosItemId": null,
        "trdItemName": "Steam Chix Drumstick Bento Rice (Del)",
        "trdItemImage": "https://resto-images-sg.s3.ap-southeast-1.amazonaws.com/image/c400000210/b1890221491992203266/20250725-23850488.jpg",
        "trdItemSizeName": "",
        "trdItemType": "Single",
        "trdSubMenuName": "OK Bento (Del)",
        "trdSkuId": "1937432583218450438",
        "trdSkuCode": "",
        "trdPrice": "11.5"
      },
      {
        "itemId": "1937432583080038404",
        "itemName": "Steam Chix XXL DBL Wings Bento Rice (Onl)",
        "itemImage": "https://resto-images-sg.s3.ap-southeast-1.amazonaws.com/c400000210/b1890221491992203266/443226-20250725.jpg",
        "itemSizeName": "...",
        "itemType": "Item",
        "menuGroupName": "OK Bento (Del)",
        "skuId": "1937432583080038405",
        "skuCode": "",
        "price": "11.50",
        "itemPath": "1937434439277658116/1937434439315406850/e582fe55557cecb62248693f2fd19ffa",
        "syncStatus": "SYNCED",
        "itemStatus": 1,
        "trdItemId": "1937432583080038404",
        "trdPosItemId": null,
        "trdItemName": "Steam Chix XXL DBL Wings Bento Rice (Del)",
        "trdItemImage": "https://resto-images-sg.s3.ap-southeast-1.amazonaws.com/image/c400000210/b1890221491992203266/20250725-23850488.jpg",
        "trdItemSizeName": "",
        "trdItemType": "Single",
        "trdSubMenuName": "OK Bento (Del)",
        "trdSkuId": "1937432583080038405",
        "trdSkuCode": "",
        "trdPrice": "11.5"
      },
      {
        "itemId": "1937432582937432070",
        "itemName": "Steam XXL Chix Thigh Bento Rice (Onl)",
        "itemImage": "https://resto-images-sg.s3.ap-southeast-1.amazonaws.com/c400000210/b1890221491992203266/540683-20250725.jpg",
        "itemSizeName": "...",
        "itemType": "Item",
        "menuGroupName": "OK Bento (Del)",
        "skuId": "1937432582937432071",
        "skuCode": "",
        "price": "14.00",
        "itemPath": "1937434439277658116/1937434439315406850/4dcea47e477dfa379b4058fea2ad8ecc",
        "syncStatus": "SYNCED",
        "itemStatus": 1,
        "trdItemId": "1937432582937432070",
        "trdPosItemId": null,
        "trdItemName": "Steam XXL Chix Thigh Bento Rice (Del)",
        "trdItemImage": "https://resto-images-sg.s3.ap-southeast-1.amazonaws.com/image/c400000210/b1890221491992203266/20250725-23850488.jpg",
        "trdItemSizeName": "",
        "trdItemType": "Single",
        "trdSubMenuName": "OK Bento (Del)",
        "trdSkuId": "1937432582937432071",
        "trdSkuCode": "",
        "trdPrice": "14"
      },
      {
        "itemId": "1937432582689968131",
        "itemName": "Mayo Cutlet Chicken Bento Rice (Onl)",
        "itemImage": "https://resto-images-sg.s3.ap-southeast-1.amazonaws.com/c400000210/b1890221491992203266/639838-20250815.jpg",
        "itemSizeName": "...",
        "itemType": "Item",
        "menuGroupName": "OK Bento (Del)",
        "skuId": "1937432582689968132",
        "skuCode": "",
        "price": "8.80",
        "itemPath": "1937434439277658116/1937434439315406850/0007b8554a8b66ffbf6befaad31cf11a",
        "syncStatus": "SYNCED",
        "itemStatus": 1,
        "trdItemId": "1937432582689968131",
        "trdPosItemId": null,
        "trdItemName": "Mayo Cutlet Chicken Bento Rice (Del)",
        "trdItemImage": "https://resto-images-sg.s3.ap-southeast-1.amazonaws.com/c400000210/b1890221491992203266/329175-20250815.jpg",
        "trdItemSizeName": "",
        "trdItemType": "Single",
        "trdSubMenuName": "OK Bento (Del)",
        "trdSkuId": "1937432582689968132",
        "trdSkuCode": "",
        "trdPrice": "8.8"
      },
      {
        "itemId": "1937432582513807360",
        "itemName": "Lemon Cutlet Chicken Bento Rice (Onl)",
        "itemImage": "https://resto-images-sg.s3.ap-southeast-1.amazonaws.com/c400000210/b1890221491992203266/080878-20250815.jpg",
        "itemSizeName": "...",
        "itemType": "Item",
        "menuGroupName": "OK Bento (Del)",
        "skuId": "1937432582513807361",
        "skuCode": "",
        "price": "8.80",
        "itemPath": "1937434439277658116/1937434439315406850/d7feb99cc4518471e2f9d6178ea34bf6",
        "syncStatus": "SYNCED",
        "itemStatus": 1,
        "trdItemId": "1937432582513807360",
        "trdPosItemId": null,
        "trdItemName": "Lemon Cutlet Chicken Bento Rice (Del)",
        "trdItemImage": "https://resto-images-sg.s3.ap-southeast-1.amazonaws.com/c400000210/b1890221491992203266/430349-20250815.jpg",
        "trdItemSizeName": "",
        "trdItemType": "Single",
        "trdSubMenuName": "OK Bento (Del)",
        "trdSkuId": "1937432582513807361",
        "trdSkuCode": "",
        "trdPrice": "8.8"
      },
      {
        "itemId": "1937432582362812422",
        "itemName": "Char Siew Chicken Bento Rice (Onl)",
        "itemImage": "https://resto-images-sg.s3.ap-southeast-1.amazonaws.com/c400000210/b1890221491992203266/592305-20250815.jpg",
        "itemSizeName": "...",
        "itemType": "Item",
        "menuGroupName": "OK Bento (Del)",
        "skuId": "1937432582362812423",
        "skuCode": "",
        "price": "8.80",
        "itemPath": "1937434439277658116/1937434439315406850/b1f57cd6d227ae75f3be358d8045cec6",
        "syncStatus": "SYNCED",
        "itemStatus": 1,
        "trdItemId": "1937432582362812422",
        "trdPosItemId": null,
        "trdItemName": "Char Siew Chicken Bento Rice (Del)",
        "trdItemImage": "https://resto-images-sg.s3.ap-southeast-1.amazonaws.com/c400000210/b1890221491992203266/168931-20250815.jpg",
        "trdItemSizeName": "",
        "trdItemType": "Single",
        "trdSubMenuName": "OK Bento (Del)",
        "trdSkuId": "1937432582362812423",
        "trdSkuCode": "",
        "trdPrice": "8.8"
      },
      {
        "itemId": "1937432582199234568",
        "itemName": "Vegetarian Bento Rice (Onl)",
        "itemImage": "https://resto-images-sg.s3.ap-southeast-1.amazonaws.com/c400000210/b1890221491992203266/394542-20250912.jpeg",
        "itemSizeName": "...",
        "itemType": "Item",
        "menuGroupName": "OK Bento (Del)",
        "skuId": "1937432582199234569",
        "skuCode": "",
        "price": "6.50",
        "itemPath": "1937434439277658116/1937434439315406850/bf66c35fe9dc1cce812997c9d3476915",
        "syncStatus": "SYNCED",
        "itemStatus": 1,
        "trdItemId": "1937432582199234568",
        "trdPosItemId": null,
        "trdItemName": "Vegetarian Bento Rice (Del)",
        "trdItemImage": "https://resto-images-sg.s3.ap-southeast-1.amazonaws.com/c400000210/b1890221491992203266/398242-20250912.jpeg",
        "trdItemSizeName": "",
        "trdItemType": "Single",
        "trdSubMenuName": "OK Bento (Del)",
        "trdSkuId": "1937432582199234569",
        "trdSkuCode": "",
        "trdPrice": "6.5"
      },
      {
        "itemId": "1937432582018879489",
        "itemName": "Roast Chix Rice (ONL)",
        "itemImage": "https://resto-images-sg.s3.ap-southeast-1.amazonaws.com/image/c400000210/b1890221491992203266/925814-20250629.jpeg",
        "itemSizeName": "...",
        "itemType": "Item",
        "menuGroupName": "OK Rice (Del)",
        "skuId": "1937432582018879490",
        "skuCode": "",
        "price": "6.50",
        "itemPath": "1937434439277658116/1937434439344766982/ab8cb6db33b22e83c7dda921c1f8ad5c",
        "syncStatus": "SYNCED",
        "itemStatus": 1,
        "trdItemId": "1937432582018879489",
        "trdPosItemId": null,
        "trdItemName": "Roast Chix Rice (Del)",
        "trdItemImage": "https://resto-images-sg.s3.ap-southeast-1.amazonaws.com/image/c400000210/b1890221491992203266/925814-20250629.jpeg",
        "trdItemSizeName": "",
        "trdItemType": "Single",
        "trdSubMenuName": "OK Rice (Del)",
        "trdSkuId": "1937432582018879490",
        "trdSkuCode": "",
        "trdPrice": "6.5"
      },
      {
        "itemId": "1937432581825941511",
        "itemName": "Roast Chix Drumstick Rice (Onl)",
        "itemImage": "https://resto-images-sg.s3.ap-southeast-1.amazonaws.com/image/c400000210/b1890221491992203266/327390-20250629.jpeg",
        "itemSizeName": "...",
        "itemType": "Item",
        "menuGroupName": "OK Rice (Del)",
        "skuId": "1937432581825941512",
        "skuCode": "",
        "price": "8.50",
        "itemPath": "1937434439277658116/1937434439344766982/b82be908fb5cdef745dd1fd2824dea80",
        "syncStatus": "SYNCED",
        "itemStatus": 1,
        "trdItemId": "1937432581825941511",
        "trdPosItemId": null,
        "trdItemName": "Roast Chix Drumstick Rice (Del)",
        "trdItemImage": "https://resto-images-sg.s3.ap-southeast-1.amazonaws.com/image/c400000210/b1890221491992203266/327390-20250629.jpeg",
        "trdItemSizeName": "",
        "trdItemType": "Single",
        "trdSubMenuName": "OK Rice (Del)",
        "trdSkuId": "1937432581825941512",
        "trdSkuCode": "",
        "trdPrice": "8.5"
      },
      {
        "itemId": "1937432581653975044",
        "itemName": "Roast Chix XXL DBL Wings Rice (Onl)",
        "itemImage": "https://resto-images-sg.s3.ap-southeast-1.amazonaws.com/image/c400000210/b1890221491992203266/170612-20250629.jpg",
        "itemSizeName": "...",
        "itemType": "Item",
        "menuGroupName": "OK Rice (Del)",
        "skuId": "1937432581653975045",
        "skuCode": "",
        "price": "8.50",
        "itemPath": "1937434439277658116/1937434439344766982/2e433c2b22f720877424dbce9f8f8ce4",
        "syncStatus": "SYNCED",
        "itemStatus": 1,
        "trdItemId": "1937432581653975044",
        "trdPosItemId": null,
        "trdItemName": "Roast Chix XXL DBL Wings Rice (Del)",
        "trdItemImage": "https://resto-images-sg.s3.ap-southeast-1.amazonaws.com/image/c400000210/b1890221491992203266/170612-20250629.jpg",
        "trdItemSizeName": "",
        "trdItemType": "Single",
        "trdSubMenuName": "OK Rice (Del)",
        "trdSkuId": "1937432581653975045",
        "trdSkuCode": "",
        "trdPrice": "8.5"
      },
      {
        "itemId": "1937432581490397186",
        "itemName": "Roast XXL Chix Thigh Rice (Onl)",
        "itemImage": "https://resto-images-sg.s3.ap-southeast-1.amazonaws.com/c400000210/b1890221491992203266/142865-20250815.jpeg",
        "itemSizeName": "...",
        "itemType": "Item",
        "menuGroupName": "OK Rice (Del)",
        "skuId": "1937432581490397187",
        "skuCode": "",
        "price": "11.00",
        "itemPath": "1937434439277658116/1937434439344766982/131503352163c7e15da75aed79b5144b",
        "syncStatus": "SYNCED",
        "itemStatus": 1,
        "trdItemId": "1937432581490397186",
        "trdPosItemId": null,
        "trdItemName": "Roast XXL Chix Thigh Rice (Del)",
        "trdItemImage": "https://resto-images-sg.s3.ap-southeast-1.amazonaws.com/c400000210/b1890221491992203266/651559-20250815.jpeg",
        "trdItemSizeName": "",
        "trdItemType": "Single",
        "trdSubMenuName": "OK Rice (Del)",
        "trdSkuId": "1937432581490397187",
        "trdSkuCode": "",
        "trdPrice": "11"
      },
      {
        "itemId": "1937432581335207940",
        "itemName": "Steam Chix Rice (STD) (Onl)",
        "itemImage": "https://resto-images-sg.s3.ap-southeast-1.amazonaws.com/image/c400000210/b1890221491992203266/344124-20250629.jpg",
        "itemSizeName": "...",
        "itemType": "Item",
        "menuGroupName": "OK Rice (Del)",
        "skuId": "1937432581335207941",
        "skuCode": "",
        "price": "6.50",
        "itemPath": "1937434439277658116/1937434439344766982/6fb89314c0e11f2d5ea08e50871d5b8a",
        "syncStatus": "SYNCED",
        "itemStatus": 1,
        "trdItemId": "1937432581335207940",
        "trdPosItemId": null,
        "trdItemName": "Steam Chix Rice (STD) (Del)",
        "trdItemImage": "https://resto-images-sg.s3.ap-southeast-1.amazonaws.com/image/c400000210/b1890221491992203266/344124-20250629.jpg",
        "trdItemSizeName": "",
        "trdItemType": "Single",
        "trdSubMenuName": "OK Rice (Del)",
        "trdSkuId": "1937432581335207941",
        "trdSkuCode": "",
        "trdPrice": "6.5"
      },
      {
        "itemId": "1937432581188407300",
        "itemName": "Steam Chix Drumstick Rice (Onl)",
        "itemImage": "https://resto-images-sg.s3.ap-southeast-1.amazonaws.com/image/c400000210/b1890221491992203266/832584-20250629.jpg",
        "itemSizeName": "...",
        "itemType": "Item",
        "menuGroupName": "OK Rice (Del)",
        "skuId": "1937432581188407301",
        "skuCode": "",
        "price": "8.50",
        "itemPath": "1937434439277658116/1937434439344766982/62ae7fde8a99ad663eb83059982b31a0",
        "syncStatus": "SYNCED",
        "itemStatus": 1,
        "trdItemId": "1937432581188407300",
        "trdPosItemId": null,
        "trdItemName": "Steam Chix Drumstick Rice (Del)",
        "trdItemImage": "https://resto-images-sg.s3.ap-southeast-1.amazonaws.com/image/c400000210/b1890221491992203266/832584-20250629.jpg",
        "trdItemSizeName": "",
        "trdItemType": "Single",
        "trdSubMenuName": "OK Rice (Del)",
        "trdSkuId": "1937432581188407301",
        "trdSkuCode": "",
        "trdPrice": "8.5"
      },
      {
        "itemId": "1937432581024829440",
        "itemName": "Steam Chix XXL DBL Wings Rice (Onl)",
        "itemImage": "https://resto-images-sg.s3.ap-southeast-1.amazonaws.com/image/c400000210/b1890221491992203266/918145-20250629.jpg",
        "itemSizeName": "...",
        "itemType": "Item",
        "menuGroupName": "OK Rice (Del)",
        "skuId": "1937432581024829441",
        "skuCode": "",
        "price": "8.50",
        "itemPath": "1937434439277658116/1937434439344766982/2c60434cc5cef76fe7dfac9e7cee570d",
        "syncStatus": "SYNCED",
        "itemStatus": 1,
        "trdItemId": "1937432581024829440",
        "trdPosItemId": null,
        "trdItemName": "Steam Chix XXL DBL Wings Rice (Del)",
        "trdItemImage": "https://resto-images-sg.s3.ap-southeast-1.amazonaws.com/image/c400000210/b1890221491992203266/918145-20250629.jpg",
        "trdItemSizeName": "",
        "trdItemType": "Single",
        "trdSubMenuName": "OK Rice (Del)",
        "trdSkuId": "1937432581024829441",
        "trdSkuCode": "",
        "trdPrice": "8.5"
      },
      {
        "itemId": "1937432580857057280",
        "itemName": "Steam XXL Chix Thigh Rice (Onl)",
        "itemImage": "https://resto-images-sg.s3.ap-southeast-1.amazonaws.com/c400000210/b1890221491992203266/102600-20250815.jpg",
        "itemSizeName": "...",
        "itemType": "Item",
        "menuGroupName": "OK Rice (Del)",
        "skuId": "1937432580857057281",
        "skuCode": "",
        "price": "11.00",
        "itemPath": "1937434439277658116/1937434439344766982/47d4d334705568f24a3998b20340abc1",
        "syncStatus": "SYNCED",
        "itemStatus": 1,
        "trdItemId": "1937432580857057280",
        "trdPosItemId": null,
        "trdItemName": "Steam XXL Chix Thigh Rice (Del)",
        "trdItemImage": "https://resto-images-sg.s3.ap-southeast-1.amazonaws.com/c400000210/b1890221491992203266/343405-20250815.jpg",
        "trdItemSizeName": "",
        "trdItemType": "Single",
        "trdSubMenuName": "OK Rice (Del)",
        "trdSkuId": "1937432580857057281",
        "trdSkuCode": "",
        "trdPrice": "11"
      }
    ],
    "notBindCount": "1",
    "currency": {
      "currency": "SGD",
      "currencySymbol": "S$",
      "centNum": 2
    },
    "page": {
      "total": 78,
      "pageNo": 1,
      "pageSize": 20,
      "pageCount": 4
    }
  }
}