{
  "code": "000",
  "msg": "ok",
  "data": {
    "itemRelations": [
      {
        "itemId": "1998579235429859333",
        "itemName": "Coke 500ml",
        "itemImage": "https://resto-images-sg.s3.ap-southeast-1.amazonaws.com/c400000210/b1985623384477745157/287772-20251210.jpeg",
        "itemSizeName": "Del",
        "itemType": "Item",
        "menuGroupName": "JKT Beverages",
        "skuId": "1998579235429859334",
        "skuCode": "",
        "price": "2.50",
        "itemPath": "1985631011018641411/1998590891320983556/eccbcc89b09a347c0bd3c810871bfbd7",
        "syncStatus": "SYNCED",
        "itemStatus": 1,
        "trdItemId": "1998579235429859333",
        "trdPosItemId": null,
        "trdItemName": "Coke 500ml",
        "trdItemImage": "https://resto-images-sg.s3.ap-southeast-1.amazonaws.com/c400000210/b1985623384477745157/277438-20251210.jpeg",
        "trdItemSizeName": "",
        "trdItemType": "Single",
        "trdSubMenuName": "JKT Beverages",
        "trdSkuId": "1998579235429859334",
        "trdSkuCode": "",
        "trdPrice": "2.5"
      },
      {
        "itemId": "1998579707595243521",
        "itemName": "Ice Lemon Tea 500ml",
        "itemImage": "https://resto-images-sg.s3.ap-southeast-1.amazonaws.com/c400000210/b1985623384477745157/629969-20251210.jpg",
        "itemSizeName": "Del",
        "itemType": "Item",
        "menuGroupName": "JKT Beverages",
        "skuId": "1998579707595243522",
        "skuCode": "",
        "price": "2.50",
        "itemPath": "1985631011018641411/1998590891320983556/88285e5e278903b81d9e94586e4421a0",
        "syncStatus": "SYNCED",
        "itemStatus": 1,
        "trdItemId": "1998579707595243521",
        "trdPosItemId": null,
        "trdItemName": "Ice Lemon Tea 500ml",
        "trdItemImage": "https://resto-images-sg.s3.ap-southeast-1.amazonaws.com/c400000210/b1985623384477745157/295337-20251210.jpg",
        "trdItemSizeName": "",
        "trdItemType": "Single",
        "trdSubMenuName": "JKT Beverages",
        "trdSkuId": "1998579707595243522",
        "trdSkuCode": "",
        "trdPrice": "2.5"
      },
      {
        "itemId": "1998580188988100613",
        "itemName": "Bandung 500ml",
        "itemImage": "https://resto-images-sg.s3.ap-southeast-1.amazonaws.com/c400000210/b1985623384477745157/750675-20251210.jpg",
        "itemSizeName": "Del",
        "itemType": "Item",
        "menuGroupName": "JKT Beverages",
        "skuId": "1998580188988100614",
        "skuCode": "",
        "price": "2.50",
        "itemPath": "1985631011018641411/1998590891320983556/22fcb3312831b2c0f3cb0ee0cfa83b35",
        "syncStatus": "SYNCED",
        "itemStatus": 1,
        "trdItemId": "1998580188988100613",
        "trdPosItemId": null,
        "trdItemName": "Bandung 500ml",
        "trdItemImage": "https://resto-images-sg.s3.ap-southeast-1.amazonaws.com/c400000210/b1985623384477745157/142450-20251210.jpg",
        "trdItemSizeName": "",
        "trdItemType": "Single",
        "trdSubMenuName": "JKT Beverages",
        "trdSkuId": "1998580188988100614",
        "trdSkuCode": "",
        "trdPrice": "2.5"
      },
      {
        "itemId": "1998580401274404867",
        "itemName": "Dasani 600ml",
        "itemImage": "https://resto-images-sg.s3.ap-southeast-1.amazonaws.com/c400000210/b1985623384477745157/367358-20251210.png",
        "itemSizeName": "Del",
        "itemType": "Item",
        "menuGroupName": "JKT Beverages",
        "skuId": "1998580401274404868",
        "skuCode": "",
        "price": "1.50",
        "itemPath": "1985631011018641411/1998590891320983556/3f1daa95d1cef09c49ce7bd9d3237a54",
        "syncStatus": "SYNCED",
        "itemStatus": 1,
        "trdItemId": "1998580401274404867",
        "trdPosItemId": null,
        "trdItemName": "Dasani 600ml",
        "trdItemImage": "https://resto-images-sg.s3.ap-southeast-1.amazonaws.com/c400000210/064726-20251210.png",
        "trdItemSizeName": "",
        "trdItemType": "Single",
        "trdSubMenuName": "JKT Beverages",
        "trdSkuId": "1998580401274404868",
        "trdSkuCode": "",
        "trdPrice": "1.5"
      },
      {
        "itemId": "1998581865682092037",
        "itemName": "Redbull (Thaniland)",
        "itemImage": "https://resto-images-sg.s3.ap-southeast-1.amazonaws.com/c400000210/b1985623384477745157/276561-20251210.jpeg",
        "itemSizeName": "Del",
        "itemType": "Item",
        "menuGroupName": "JKT Beverages",
        "skuId": "1998581865682092038",
        "skuCode": "",
        "price": "2.00",
        "itemPath": "1985631011018641411/1998590891320983556/a3d9aac4c5ed8690043bcf13c4b83714",
        "syncStatus": "SYNCED",
        "itemStatus": 1,
        "trdItemId": "1998581865682092037",
        "trdPosItemId": null,
        "trdItemName": "Redbull (Thaniland)",
        "trdItemImage": "https://resto-images-sg.s3.ap-southeast-1.amazonaws.com/c400000210/b1985623384477745157/169478-20251210.jpeg",
        "trdItemSizeName": "",
        "trdItemType": "Single",
        "trdSubMenuName": "JKT Beverages",
        "trdSkuId": "1998581865682092038",
        "trdSkuCode": "",
        "trdPrice": "2"
      },
      {
        "itemId": "1985629629914021895",
        "itemName": "Ribeye Steak",
        "itemImage": "https://resto-images-sg.s3.ap-southeast-1.amazonaws.com/c400000210/b1985623384477745157/254149-20251204.jpg",
        "itemSizeName": "Del",
        "itemType": "Item",
        "menuGroupName": "JKT Grilled Set",
        "skuId": "1985629629914021896",
        "skuCode": "",
        "price": "24.60",
        "itemPath": "1985631011018641411/1985631011039612928/36dc984385ab7995358909d5b30835e8",
        "syncStatus": "SYNCED",
        "itemStatus": 1,
        "trdItemId": "1985629629914021895",
        "trdPosItemId": null,
        "trdItemName": "Ribeye Steak",
        "trdItemImage": "https://resto-images-sg.s3.ap-southeast-1.amazonaws.com/c400000210/b1985623384477745157/522414-20251204.jpg",
        "trdItemSizeName": "",
        "trdItemType": "Single",
        "trdSubMenuName": "JKT Grilled Set",
        "trdSkuId": "1985629629914021896",
        "trdSkuCode": "",
        "trdPrice": "24.6"
      },
      {
        "itemId": "1985629629712695304",
        "itemName": "Grilled Fish",
        "itemImage": "https://resto-images-sg.s3.ap-southeast-1.amazonaws.com/c400000210/b1985623384477745157/279632-20251210.jpeg",
        "itemSizeName": "Del",
        "itemType": "Item",
        "menuGroupName": "JKT Grilled Set",
        "skuId": "1985629629712695305",
        "skuCode": "",
        "price": "12.90",
        "itemPath": "1985631011018641411/1985631011039612928/c297d23cf2e74d63a9a3fc202f521287",
        "syncStatus": "SYNCED",
        "itemStatus": 1,
        "trdItemId": "1985629629712695304",
        "trdPosItemId": null,
        "trdItemName": "Grilled Fish",
        "trdItemImage": "https://resto-images-sg.s3.ap-southeast-1.amazonaws.com/c400000210/b1985623384477745157/460336-20251210.jpeg",
        "trdItemSizeName": "",
        "trdItemType": "Single",
        "trdSubMenuName": "JKT Grilled Set",
        "trdSkuId": "1985629629712695305",
        "trdSkuCode": "",
        "trdPrice": "12.9"
      },
      {
        "itemId": "1985629628416655366",
        "itemName": "Lamb Chop",
        "itemImage": "https://resto-images-sg.s3.ap-southeast-1.amazonaws.com/c400000210/b1985623384477745157/929472-20251210.jpg",
        "itemSizeName": "Del",
        "itemType": "Item",
        "menuGroupName": "JKT Grilled Set",
        "skuId": "1985629628416655367",
        "skuCode": "",
        "price": "19.40",
        "itemPath": "1985631011018641411/1985631011039612928/1908a2df53446a1263fad392814fdc3b",
        "syncStatus": "SYNCED",
        "itemStatus": 1,
        "trdItemId": "1985629628416655366",
        "trdPosItemId": null,
        "trdItemName": "Lamb Chop",
        "trdItemImage": "https://resto-images-sg.s3.ap-southeast-1.amazonaws.com/c400000210/b1985623384477745157/233877-20251210.jpg",
        "trdItemSizeName": "",
        "trdItemType": "Single",
        "trdSubMenuName": "JKT Grilled Set",
        "trdSkuId": "1985629628416655367",
        "trdSkuCode": "",
        "trdPrice": "19.4"
      },
      {
        "itemId": "1985629627456159750",
        "itemName": "Chicken Chop",
        "itemImage": "https://resto-images-sg.s3.ap-southeast-1.amazonaws.com/c400000210/b1985623384477745157/663590-20251210.jpg",
        "itemSizeName": "Del",
        "itemType": "Item",
        "menuGroupName": "JKT Grilled Set",
        "skuId": "1985629627456159751",
        "skuCode": "",
        "price": "11.60",
        "itemPath": "1985631011018641411/1985631011039612928/efe2c714cf72cbdfed00c3ce1bac3db1",
        "syncStatus": "SYNCED",
        "itemStatus": 1,
        "trdItemId": "1985629627456159750",
        "trdPosItemId": null,
        "trdItemName": "Chicken Chop",
        "trdItemImage": "https://resto-images-sg.s3.ap-southeast-1.amazonaws.com/c400000210/b1985623384477745157/396124-20251210.jpg",
        "trdItemSizeName": "",
        "trdItemType": "Single",
        "trdSubMenuName": "JKT Grilled Set",
        "trdSkuId": "1985629627456159751",
        "trdSkuCode": "",
        "trdPrice": "11.6"
      },
      {
        "itemId": "1985629629528145926",
        "itemName": "Fish & Chips",
        "itemImage": "https://resto-images-sg.s3.ap-southeast-1.amazonaws.com/c400000210/b1985623384477745157/360170-20251210.jpg",
        "itemSizeName": "Del",
        "itemType": "Item",
        "menuGroupName": "JKT Fried Set",
        "skuId": "1985629629528145927",
        "skuCode": "",
        "price": "12.90",
        "itemPath": "1985631011018641411/1985631011064778757/14b3fe63e70f0908f6453fb033c6531e",
        "syncStatus": "SYNCED",
        "itemStatus": 1,
        "trdItemId": "1985629629528145926",
        "trdPosItemId": null,
        "trdItemName": "Fish & Chips",
        "trdItemImage": "https://resto-images-sg.s3.ap-southeast-1.amazonaws.com/c400000210/b1985623384477745157/170425-20251210.jpg",
        "trdItemSizeName": "",
        "trdItemType": "Single",
        "trdSubMenuName": "JKT Fried Set",
        "trdSkuId": "1985629629528145927",
        "trdSkuCode": "",
        "trdPrice": "12.9"
      },
      {
        "itemId": "1985629629280681989",
        "itemName": "Whole Spring Chicken",
        "itemImage": "https://resto-images-sg.s3.ap-southeast-1.amazonaws.com/c400000210/b1985623384477745157/495637-20251210.jpeg",
        "itemSizeName": "Del",
        "itemType": "Item",
        "menuGroupName": "JKT Fried Set",
        "skuId": "1985629629280681990",
        "skuCode": "",
        "price": "20.70",
        "itemPath": "1985631011018641411/1985631011064778757/4ed933d1be13ae989429802a8baaf5ab",
        "syncStatus": "SYNCED",
        "itemStatus": 1,
        "trdItemId": "1985629629280681989",
        "trdPosItemId": null,
        "trdItemName": "Whole Spring Chicken",
        "trdItemImage": "https://resto-images-sg.s3.ap-southeast-1.amazonaws.com/c400000210/b1985623384477745157/591493-20251210.jpeg",
        "trdItemSizeName": "",
        "trdItemType": "Single",
        "trdSubMenuName": "JKT Fried Set",
        "trdSkuId": "1985629629280681990",
        "trdSkuCode": "",
        "trdPrice": "20.7"
      },
      {
        "itemId": "1985629628882223111",
        "itemName": "Chicken Cutlet",
        "itemImage": "https://resto-images-sg.s3.ap-southeast-1.amazonaws.com/c400000210/b1985623384477745157/548973-20251210.jpg",
        "itemSizeName": "Del",
        "itemType": "Item",
        "menuGroupName": "JKT Fried Set",
        "skuId": "1985629628882223112",
        "skuCode": "",
        "price": "11.60",
        "itemPath": "1985631011018641411/1985631011064778757/f728dcf48c2daafc1a1679b200545b12",
        "syncStatus": "SYNCED",
        "itemStatus": 1,
        "trdItemId": "1985629628882223111",
        "trdPosItemId": null,
        "trdItemName": "Chicken Cutlet",
        "trdItemImage": "https://resto-images-sg.s3.ap-southeast-1.amazonaws.com/c400000210/b1985623384477745157/591452-20251210.jpg",
        "trdItemSizeName": "",
        "trdItemType": "Single",
        "trdSubMenuName": "JKT Fried Set",
        "trdSkuId": "1985629628882223112",
        "trdSkuCode": "",
        "trdPrice": "11.6"
      },
      {
        "itemId": "1985629628735422464",
        "itemName": "Half Spring Chicken",
        "itemImage": "https://resto-images-sg.s3.ap-southeast-1.amazonaws.com/c400000210/b1985623384477745157/928060-20251210.jpg",
        "itemSizeName": "Del",
        "itemType": "Item",
        "menuGroupName": "JKT Fried Set",
        "skuId": "1985629628735422465",
        "skuCode": "",
        "price": "14.20",
        "itemPath": "1985631011018641411/1985631011064778757/ae599b96d799612ab0ead5aac460dab9",
        "syncStatus": "SYNCED",
        "itemStatus": 1,
        "trdItemId": "1985629628735422464",
        "trdPosItemId": null,
        "trdItemName": "Half Spring Chicken",
        "trdItemImage": "https://resto-images-sg.s3.ap-southeast-1.amazonaws.com/c400000210/b1985623384477745157/379216-20251210.jpg",
        "trdItemSizeName": "",
        "trdItemType": "Single",
        "trdSubMenuName": "JKT Fried Set",
        "trdSkuId": "1985629628735422465",
        "trdSkuCode": "",
        "trdPrice": "14.2"
      },
      {
        "itemId": "1985630776393465857",
        "itemName": "Carbonara Cream",
        "itemImage": "https://resto-images-sg.s3.ap-southeast-1.amazonaws.com/c400000210/b1985623384477745157/137457-20251210.jpg",
        "itemSizeName": "Del",
        "itemType": "Item",
        "menuGroupName": "JKT Pasta",
        "skuId": "1985630776393465858",
        "skuCode": "",
        "price": "6.50",
        "itemPath": "1985631011018641411/1985631011089944580/37100afbf3f93d392ecead411a6c5944",
        "syncStatus": "SYNCED",
        "itemStatus": 1,
        "trdItemId": "1985630776393465857",
        "trdPosItemId": null,
        "trdItemName": "Carbonara Cream",
        "trdItemImage": "https://resto-images-sg.s3.ap-southeast-1.amazonaws.com/c400000210/b1985623384477745157/886604-20251210.jpg",
        "trdItemSizeName": "",
        "trdItemType": "Single",
        "trdSubMenuName": "JKT Pasta",
        "trdSkuId": "1985630776393465858",
        "trdSkuCode": "",
        "trdPrice": "6.5"
      },
      {
        "itemId": "1985630776150196232",
        "itemName": "Tomato Pomodoro",
        "itemImage": "https://resto-images-sg.s3.ap-southeast-1.amazonaws.com/c400000210/b1985623384477745157/020731-20251210.jpg",
        "itemSizeName": "Del",
        "itemType": "Item",
        "menuGroupName": "JKT Pasta",
        "skuId": "1985630776150196233",
        "skuCode": "",
        "price": "6.50",
        "itemPath": "1985631011018641411/1985631011089944580/44d43a7b7bcbfac3b65e1423ce05a9b2",
        "syncStatus": "SYNCED",
        "itemStatus": 1,
        "trdItemId": "1985630776150196232",
        "trdPosItemId": null,
        "trdItemName": "Tomato Pomodoro",
        "trdItemImage": "https://resto-images-sg.s3.ap-southeast-1.amazonaws.com/c400000210/b1985623384477745157/842840-20251210.jpg",
        "trdItemSizeName": "",
        "trdItemType": "Single",
        "trdSubMenuName": "JKT Pasta",
        "trdSkuId": "1985630776150196233",
        "trdSkuCode": "",
        "trdPrice": "6.5"
      },
      {
        "itemId": "1985630775999201284",
        "itemName": "Half Spring Chicken Pasta",
        "itemImage": "",
        "itemSizeName": "STD",
        "itemType": "Item",
        "menuGroupName": "JKT Pasta",
        "skuId": "1985630775999201285",
        "skuCode": "",
        "price": "14.80",
        "itemPath": "1985631011018641411/1985631011089944580/d1609e4b634d99aa0c91c76e16bb3d05",
        "syncStatus": "SYNCED",
        "itemStatus": 1,
        "trdItemId": "1985630775999201284",
        "trdPosItemId": null,
        "trdItemName": "Half Spring Chicken Pasta",
        "trdItemImage": "",
        "trdItemSizeName": "",
        "trdItemType": "Single",
        "trdSubMenuName": "JKT Pasta",
        "trdSkuId": "1985630775999201285",
        "trdSkuCode": "",
        "trdPrice": "14.8"
      },
      {
        "itemId": "1985630775789486084",
        "itemName": "Crispy Fish Pasta",
        "itemImage": "",
        "itemSizeName": "STD",
        "itemType": "Item",
        "menuGroupName": "JKT Pasta",
        "skuId": "1985630775789486085",
        "skuCode": "",
        "price": "13.50",
        "itemPath": "1985631011018641411/1985631011089944580/dd61397bd577932218f18f60e7c6e510",
        "syncStatus": "SYNCED",
        "itemStatus": 1,
        "trdItemId": "1985630775789486084",
        "trdPosItemId": null,
        "trdItemName": "Crispy Fish Pasta",
        "trdItemImage": "",
        "trdItemSizeName": "",
        "trdItemType": "Single",
        "trdSubMenuName": "JKT Pasta",
        "trdSkuId": "1985630775789486085",
        "trdSkuCode": "",
        "trdPrice": "13.5"
      },
      {
        "itemId": "1985630775583965187",
        "itemName": "Lamb Chop Pasta",
        "itemImage": "",
        "itemSizeName": "STD",
        "itemType": "Item",
        "menuGroupName": "JKT Pasta",
        "skuId": "1985630775583965188",
        "skuCode": "",
        "price": "20.00",
        "itemPath": "1985631011018641411/1985631011089944580/fdbb85c3e932285d33458f2d462e238e",
        "syncStatus": "SYNCED",
        "itemStatus": 1,
        "trdItemId": "1985630775583965187",
        "trdPosItemId": null,
        "trdItemName": "Lamb Chop Pasta",
        "trdItemImage": "",
        "trdItemSizeName": "",
        "trdItemType": "Single",
        "trdSubMenuName": "JKT Pasta",
        "trdSkuId": "1985630775583965188",
        "trdSkuCode": "",
        "trdPrice": "20"
      },
      {
        "itemId": "1985630775391027204",
        "itemName": "Ribeye Pasta",
        "itemImage": "",
        "itemSizeName": "STD",
        "itemType": "Item",
        "menuGroupName": "JKT Pasta",
        "skuId": "1985630775391027205",
        "skuCode": "",
        "price": "25.20",
        "itemPath": "1985631011018641411/1985631011089944580/392c5c4d5f688017b111b9b597152312",
        "syncStatus": "SYNCED",
        "itemStatus": 1,
        "trdItemId": "1985630775391027204",
        "trdPosItemId": null,
        "trdItemName": "Ribeye Pasta",
        "trdItemImage": "",
        "trdItemSizeName": "",
        "trdItemType": "Single",
        "trdSubMenuName": "JKT Pasta",
        "trdSkuId": "1985630775391027205",
        "trdSkuCode": "",
        "trdPrice": "25.2"
      },
      {
        "itemId": "1985629629083549701",
        "itemName": "Aglio Olio Pasta",
        "itemImage": "https://resto-images-sg.s3.ap-southeast-1.amazonaws.com/c400000210/b1985623384477745157/279002-20251210.jpg",
        "itemSizeName": "Del",
        "itemType": "Item",
        "menuGroupName": "JKT Pasta",
        "skuId": "1985629629083549702",
        "skuCode": "",
        "price": "4.60",
        "itemPath": "1985631011018641411/1985631011089944580/2a1ecff7ed5fdafa1462cce86999a017",
        "syncStatus": "SYNCED",
        "itemStatus": 1,
        "trdItemId": "1985629629083549701",
        "trdPosItemId": null,
        "trdItemName": "Aglio Olio Pasta",
        "trdItemImage": "https://resto-images-sg.s3.ap-southeast-1.amazonaws.com/c400000210/b1985623384477745157/006199-20251210.jpg",
        "trdItemSizeName": "",
        "trdItemType": "Single",
        "trdSubMenuName": "JKT Pasta",
        "trdSkuId": "1985629629083549702",
        "trdSkuCode": "",
        "trdPrice": "4.6"
      }
    ],
    "notBindCount": "0",
    "currency": {
      "currency": "SGD",
      "currencySymbol": "S$",
      "centNum": 2
    },
    "page": {
      "total": 36,
      "pageNo": 1,
      "pageSize": 20,
      "pageCount": 2
    }
  }
}