{
  "code": "000",
  "msg": "ok",
  "data": {
    "itemRelations": [
      {
        "itemId": "1936825463787798531",
        "itemName": "All In 1 Laksa",
        "itemImage": "https://resto-images-sg.s3.ap-southeast-1.amazonaws.com/image/c400000210/b1932351433869393925/264225-20250724.png",
        "itemSizeName": "Del",
        "itemType": "Item",
        "menuGroupName": "Hum Main",
        "skuId": "1936825463787798532",
        "skuCode": "",
        "price": "13.00",
        "itemPath": "1936827061708570627/1936827061733736450/6a44d14b83259c5391b1a16929c50c30",
        "syncStatus": "SYNCED",
        "itemStatus": 0,
        "trdItemId": "1936825463787798531",
        "trdPosItemId": null,
        "trdItemName": "All In 1 Laksa",
        "trdItemImage": "https://resto-images-sg.s3.ap-southeast-1.amazonaws.com/image/c400000210/b1932351433869393925/264225-20250724.png",
        "trdItemSizeName": "",
        "trdItemType": "Single",
        "trdSubMenuName": "Hum Main",
        "trdSkuId": "1936825463787798532",
        "trdSkuCode": "",
        "trdPrice": "13"
      },
      {
        "itemId": "1936825463552917505",
        "itemName": "Hum Laksa",
        "itemImage": "https://resto-images-sg.s3.ap-southeast-1.amazonaws.com/image/c400000210/b1932351433869393925/845609-20250724.jpg",
        "itemSizeName": "Del",
        "itemType": "Item",
        "menuGroupName": "Hum Main",
        "skuId": "1936825463552917506",
        "skuCode": "",
        "price": "8.50",
        "itemPath": "1936827061708570627/1936827061733736450/6acc2dd6df692a9a516e13246a977909",
        "syncStatus": "SYNCED",
        "itemStatus": 0,
        "trdItemId": "1936825463552917505",
        "trdPosItemId": null,
        "trdItemName": "Hum Laksa",
        "trdItemImage": "https://resto-images-sg.s3.ap-southeast-1.amazonaws.com/image/c400000210/b1932351433869393925/845609-20250724.jpg",
        "trdItemSizeName": "",
        "trdItemType": "Single",
        "trdSubMenuName": "Hum Main",
        "trdSkuId": "1936825463552917506",
        "trdSkuCode": "",
        "trdPrice": "8.5"
      },
      {
        "itemId": "1936825463292870663",
        "itemName": "Prawn Laksa",
        "itemImage": "https://resto-images-sg.s3.ap-southeast-1.amazonaws.com/image/c400000210/b1932351433869393925/253365-20250724.jpg",
        "itemSizeName": "Del",
        "itemType": "Item",
        "menuGroupName": "Hum Main",
        "skuId": "1936825463292870664",
        "skuCode": "",
        "price": "8.50",
        "itemPath": "1936827061708570627/1936827061733736450/dfe3f1bad53de7b5611f99c08755e148",
        "syncStatus": "SYNCED",
        "itemStatus": 1,
        "trdItemId": "1936825463292870663",
        "trdPosItemId": null,
        "trdItemName": "Prawn Laksa",
        "trdItemImage": "https://resto-images-sg.s3.ap-southeast-1.amazonaws.com/image/c400000210/b1932351433869393925/253365-20250724.jpg",
        "trdItemSizeName": "",
        "trdItemType": "Single",
        "trdSubMenuName": "Hum Main",
        "trdSkuId": "1936825463292870664",
        "trdSkuCode": "",
        "trdPrice": "8.5"
      },
      {
        "itemId": "1936825463037018116",
        "itemName": "Spicy Wanton Char Siew Chicken Noodle",
        "itemImage": "https://resto-images-sg.s3.ap-southeast-1.amazonaws.com/c400000210/b1932351433869393925/710640-20250806.jpg",
        "itemSizeName": "Del",
        "itemType": "Item",
        "menuGroupName": "Hum Main",
        "skuId": "1936825463037018117",
        "skuCode": "",
        "price": "6.50",
        "itemPath": "1936827061708570627/1936827061733736450/8f8054c95c853bb603a916ed4292d484",
        "syncStatus": "SYNCED",
        "itemStatus": 1,
        "trdItemId": "1936825463037018116",
        "trdPosItemId": null,
        "trdItemName": "Spicy Wanton Char Siew Chicken Noodle",
        "trdItemImage": "https://resto-images-sg.s3.ap-southeast-1.amazonaws.com/image/c400000210/b1932351433869393925/20250806-02106355.jpg",
        "trdItemSizeName": "",
        "trdItemType": "Single",
        "trdSubMenuName": "Hum Main",
        "trdSkuId": "1936825463037018117",
        "trdSkuCode": "",
        "trdPrice": "6.5"
      },
      {
        "itemId": "1936825462776971273",
        "itemName": "Wanton Char Siew Chicken Noodle",
        "itemImage": "https://resto-images-sg.s3.ap-southeast-1.amazonaws.com/image/c400000210/b1932351433869393925/588970-20250724.jpg",
        "itemSizeName": "Del",
        "itemType": "Item",
        "menuGroupName": "Hum Main",
        "skuId": "1936825462776971274",
        "skuCode": "",
        "price": "6.50",
        "itemPath": "1936827061708570627/1936827061733736450/03b23a9068d81863fd0ed3a13b11206d",
        "syncStatus": "SYNCED",
        "itemStatus": 1,
        "trdItemId": "1936825462776971273",
        "trdPosItemId": null,
        "trdItemName": "Wanton Char Siew Chicken Noodle",
        "trdItemImage": "https://resto-images-sg.s3.ap-southeast-1.amazonaws.com/image/c400000210/b1932351433869393925/588970-20250724.jpg",
        "trdItemSizeName": "",
        "trdItemType": "Single",
        "trdSubMenuName": "Hum Main",
        "trdSkuId": "1936825462776971274",
        "trdSkuCode": "",
        "trdPrice": "6.5"
      },
      {
        "itemId": "1936825462491758598",
        "itemName": "Handmade Spicy Chicken MB Noodles",
        "itemImage": "https://resto-images-sg.s3.ap-southeast-1.amazonaws.com/c400000210/b1932351433869393925/697777-20250806.jpg",
        "itemSizeName": "Del",
        "itemType": "Item",
        "menuGroupName": "Hum Main",
        "skuId": "1936825462491758599",
        "skuCode": "",
        "price": "6.50",
        "itemPath": "1936827061708570627/1936827061733736450/7aa2bab4cd9fdaba6e2a6b16c2b30770",
        "syncStatus": "SYNCED",
        "itemStatus": 1,
        "trdItemId": "1936825462491758598",
        "trdPosItemId": null,
        "trdItemName": "Handmade Spicy Chicken MB Noodles",
        "trdItemImage": "https://resto-images-sg.s3.ap-southeast-1.amazonaws.com/image/c400000210/b1932351433869393925/20250806-57355303.jpg",
        "trdItemSizeName": "",
        "trdItemType": "Single",
        "trdSubMenuName": "Hum Main",
        "trdSkuId": "1936825462491758599",
        "trdSkuCode": "",
        "trdPrice": "6.5"
      },
      {
        "itemId": "1936825462244294659",
        "itemName": "Handmade Chicken MB Noodles",
        "itemImage": "https://resto-images-sg.s3.ap-southeast-1.amazonaws.com/c400000210/b1932351433869393925/733992-20250806.jpg",
        "itemSizeName": "Del",
        "itemType": "Item",
        "menuGroupName": "Hum Main",
        "skuId": "1936825462244294660",
        "skuCode": "",
        "price": "6.50",
        "itemPath": "1936827061708570627/1936827061733736450/ce15dc62552c0c89dd3a58cfc5ea0e8e",
        "syncStatus": "SYNCED",
        "itemStatus": 1,
        "trdItemId": "1936825462244294659",
        "trdPosItemId": null,
        "trdItemName": "Handmade Chicken MB Noodles",
        "trdItemImage": "https://resto-images-sg.s3.ap-southeast-1.amazonaws.com/image/c400000210/b1932351433869393925/20250806-57355303.jpg",
        "trdItemSizeName": "",
        "trdItemType": "Single",
        "trdSubMenuName": "Hum Main",
        "trdSkuId": "1936825462244294660",
        "trdSkuCode": "",
        "trdPrice": "6.5"
      },
      {
        "itemId": "1936825461967470593",
        "itemName": "Chicken Cutlet Dry Noodle",
        "itemImage": "https://resto-images-sg.s3.ap-southeast-1.amazonaws.com/image/c400000210/b1932351433869393925/123755-20250724.jpg",
        "itemSizeName": "Del",
        "itemType": "Item",
        "menuGroupName": "Hum Main",
        "skuId": "1936825461967470594",
        "skuCode": "",
        "price": "5.80",
        "itemPath": "1936827061708570627/1936827061733736450/fad699484651aae7a15f24f093d5de15",
        "syncStatus": "SYNCED",
        "itemStatus": 1,
        "trdItemId": "1936825461967470593",
        "trdPosItemId": null,
        "trdItemName": "Chicken Cutlet Dry Noodle",
        "trdItemImage": "https://resto-images-sg.s3.ap-southeast-1.amazonaws.com/image/c400000210/b1932351433869393925/123755-20250724.jpg",
        "trdItemSizeName": "",
        "trdItemType": "Single",
        "trdSubMenuName": "Hum Main",
        "trdSkuId": "1936825461967470594",
        "trdSkuCode": "",
        "trdPrice": "5.8"
      },
      {
        "itemId": "1936825461690646529",
        "itemName": "Spicy Chicken Cutlet Dry Noodle",
        "itemImage": "https://resto-images-sg.s3.ap-southeast-1.amazonaws.com/c400000210/b1932351433869393925/497413-20250806.jpg",
        "itemSizeName": "Del",
        "itemType": "Item",
        "menuGroupName": "Hum Main",
        "skuId": "1936825461690646530",
        "skuCode": "",
        "price": "5.80",
        "itemPath": "1936827061708570627/1936827061733736450/31c93fee00bdbc8f11237a0856eb3215",
        "syncStatus": "SYNCED",
        "itemStatus": 1,
        "trdItemId": "1936825461690646529",
        "trdPosItemId": null,
        "trdItemName": "Spicy Chicken Cutlet Dry Noodle",
        "trdItemImage": "https://resto-images-sg.s3.ap-southeast-1.amazonaws.com/image/c400000210/b1932351433869393925/20250806-59239336.jpg",
        "trdItemSizeName": "",
        "trdItemType": "Single",
        "trdSubMenuName": "Hum Main",
        "trdSkuId": "1936825461690646530",
        "trdSkuCode": "",
        "trdPrice": "5.8"
      },
      {
        "itemId": "1970822114357497862",
        "itemName": "Roast Chicken Laksa",
        "itemImage": "https://resto-images-sg.s3.ap-southeast-1.amazonaws.com/c400000210/b1932351433869393925/468107-20250924.jpg",
        "itemSizeName": "Del",
        "itemType": "Item",
        "menuGroupName": "Hum Main",
        "skuId": "1970822114357497863",
        "skuCode": "",
        "price": "7.20",
        "itemPath": "1936827061708570627/1936827061733736450/64ab496aff32f86ec253ab1f9980b1aa",
        "syncStatus": "SYNCED",
        "itemStatus": 0,
        "trdItemId": "1970822114357497862",
        "trdPosItemId": null,
        "trdItemName": "Roast Chicken Laksa",
        "trdItemImage": "https://resto-images-sg.s3.ap-southeast-1.amazonaws.com/image/c400000210/b1932351433869393925/20250924-87222077.jpg",
        "trdItemSizeName": "",
        "trdItemType": "Single",
        "trdSubMenuName": "Hum Main",
        "trdSkuId": "1970822114357497863",
        "trdSkuCode": "",
        "trdPrice": "7.2"
      },
      {
        "itemId": "1970822313846980608",
        "itemName": "Steam Chicken Laksa",
        "itemImage": "https://resto-images-sg.s3.ap-southeast-1.amazonaws.com/c400000210/b1932351433869393925/147689-20250924.jpg",
        "itemSizeName": "Del",
        "itemType": "Item",
        "menuGroupName": "Hum Main",
        "skuId": "1970822313846980609",
        "skuCode": "",
        "price": "7.20",
        "itemPath": "1936827061708570627/1936827061733736450/3432e68739b552bc4b7d5dedfc27143c",
        "syncStatus": "SYNCED",
        "itemStatus": 0,
        "trdItemId": "1970822313846980608",
        "trdPosItemId": null,
        "trdItemName": "Steam Chicken Laksa",
        "trdItemImage": "https://resto-images-sg.s3.ap-southeast-1.amazonaws.com/image/c400000210/b1932351433869393925/20250924-87222077.jpg",
        "trdItemSizeName": "",
        "trdItemType": "Single",
        "trdSubMenuName": "Hum Main",
        "trdSkuId": "1970822313846980609",
        "trdSkuCode": "",
        "trdPrice": "7.2"
      },
      {
        "itemId": "1936825461397045248",
        "itemName": "Laksa Noodle Kosong",
        "itemImage": "https://resto-images-sg.s3.ap-southeast-1.amazonaws.com/image/c400000210/b1932351433869393925/629954-20250724.jpg",
        "itemSizeName": null,
        "itemType": "Item",
        "menuGroupName": "Hum Alacarte",
        "skuId": "1936825461397045249",
        "skuCode": "",
        "price": "3.50",
        "itemPath": "1936827061708570627/1936827061763096576/bc59c0d9bd1b9d79174dcb0420fa2d3d",
        "syncStatus": "SYNCED",
        "itemStatus": 0,
        "trdItemId": "1936825461397045248",
        "trdPosItemId": null,
        "trdItemName": "Laksa Noodle Kosong",
        "trdItemImage": "https://resto-images-sg.s3.ap-southeast-1.amazonaws.com/image/c400000210/b1932351433869393925/629954-20250724.jpg",
        "trdItemSizeName": "",
        "trdItemType": "Single",
        "trdSubMenuName": "Hum Alacarte",
        "trdSkuId": "1936825461397045249",
        "trdSkuCode": "",
        "trdPrice": "3.5"
      },
      {
        "itemId": "1936825461153775621",
        "itemName": "Fish Cake 7 slices",
        "itemImage": "https://resto-images-sg.s3.ap-southeast-1.amazonaws.com/image/c400000210/b1932351433869393925/281849-20250724.jpeg",
        "itemSizeName": null,
        "itemType": "Item",
        "menuGroupName": "Hum Alacarte",
        "skuId": "1936825461153775622",
        "skuCode": "",
        "price": "1.50",
        "itemPath": "1936827061708570627/1936827061763096576/84e7304d408cc2ff3cc097ed35fd813b",
        "syncStatus": "SYNCED",
        "itemStatus": 1,
        "trdItemId": "1936825461153775621",
        "trdPosItemId": null,
        "trdItemName": "Fish Cake 7 slices",
        "trdItemImage": "https://resto-images-sg.s3.ap-southeast-1.amazonaws.com/image/c400000210/b1932351433869393925/281849-20250724.jpeg",
        "trdItemSizeName": "",
        "trdItemType": "Single",
        "trdSubMenuName": "Hum Alacarte",
        "trdSkuId": "1936825461153775622",
        "trdSkuCode": "",
        "trdPrice": "1.5"
      },
      {
        "itemId": "1936825460851785729",
        "itemName": "1 Full Egg",
        "itemImage": "https://resto-images-sg.s3.ap-southeast-1.amazonaws.com/image/c400000210/b1932351433869393925/309654-20250724.jpeg",
        "itemSizeName": null,
        "itemType": "Item",
        "menuGroupName": "Hum Alacarte",
        "skuId": "1936825460851785730",
        "skuCode": "",
        "price": "1.50",
        "itemPath": "1936827061708570627/1936827061763096576/d50aeb36f62058190266d48b844b4d42",
        "syncStatus": "SYNCED",
        "itemStatus": 1,
        "trdItemId": "1936825460851785729",
        "trdPosItemId": null,
        "trdItemName": "1 Full Egg",
        "trdItemImage": "https://resto-images-sg.s3.ap-southeast-1.amazonaws.com/image/c400000210/b1932351433869393925/309654-20250724.jpeg",
        "trdItemSizeName": "",
        "trdItemType": "Single",
        "trdSubMenuName": "Hum Alacarte",
        "trdSkuId": "1936825460851785730",
        "trdSkuCode": "",
        "trdPrice": "1.5"
      },
      {
        "itemId": "1936825460574961673",
        "itemName": "Extra 20g Hum /Cockles",
        "itemImage": "https://resto-images-sg.s3.ap-southeast-1.amazonaws.com/c400000210/b1932351433869393925/530901-20250724.jpg",
        "itemSizeName": null,
        "itemType": "Item",
        "menuGroupName": "Hum Alacarte",
        "skuId": "1936825460574961674",
        "skuCode": "",
        "price": "3.00",
        "itemPath": "1936827061708570627/1936827061763096576/ca06d0cf925445c00a23c76c3aa54395",
        "syncStatus": "SYNCED",
        "itemStatus": 1,
        "trdItemId": "1936825460574961673",
        "trdPosItemId": null,
        "trdItemName": "Extra 20g Hum /Cockles",
        "trdItemImage": "https://resto-images-sg.s3.ap-southeast-1.amazonaws.com/c400000210/b1932351433869393925/897240-20250724.jpg",
        "trdItemSizeName": "",
        "trdItemType": "Single",
        "trdSubMenuName": "Hum Alacarte",
        "trdSkuId": "1936825460574961674",
        "trdSkuCode": "",
        "trdPrice": "3"
      },
      {
        "itemId": "1970695331171745796",
        "itemName": "Prawn",
        "itemImage": "https://resto-images-sg.s3.ap-southeast-1.amazonaws.com/c400000210/b1932351433869393925/303503-20250924.jpg",
        "itemSizeName": "Del",
        "itemType": "Item",
        "menuGroupName": "Hum Alacarte",
        "skuId": "1970695331171745797",
        "skuCode": "",
        "price": "1.30",
        "itemPath": "1936827061708570627/1936827061763096576/0fea8d1aa61b4a433793a7dabb6ec004",
        "syncStatus": "SYNCED",
        "itemStatus": 1,
        "trdItemId": "1970695331171745796",
        "trdPosItemId": null,
        "trdItemName": "Prawn",
        "trdItemImage": "https://resto-images-sg.s3.ap-southeast-1.amazonaws.com/image/c400000210/b1932351433869393925/s403792341/20250924-53367903.jpg",
        "trdItemSizeName": "",
        "trdItemType": "Single",
        "trdSubMenuName": "Hum Alacarte",
        "trdSkuId": "1970695331171745797",
        "trdSkuCode": "",
        "trdPrice": "1.3"
      },
      {
        "itemId": "1936825476068720648",
        "itemName": "Roast Chix Bento Rice",
        "itemImage": "https://resto-images-sg.s3.ap-southeast-1.amazonaws.com/c400000210/b1932351433869393925/018331-20250806.jpg",
        "itemSizeName": "Del",
        "itemType": "Item",
        "menuGroupName": "OK Bento",
        "skuId": "1936825476068720649",
        "skuCode": "",
        "price": "9.50",
        "itemPath": "1936827061708570627/1936827061784068104/500bbf18f04601e0ffea90f49826e034",
        "syncStatus": "SYNCED",
        "itemStatus": 1,
        "trdItemId": "1936825476068720648",
        "trdPosItemId": null,
        "trdItemName": "Roast Chix Bento Rice",
        "trdItemImage": "https://resto-images-sg.s3.ap-southeast-1.amazonaws.com/image/c400000210/b1932351433869393925/20250806-25537886.jpg",
        "trdItemSizeName": "",
        "trdItemType": "Single",
        "trdSubMenuName": "OK Bento",
        "trdSkuId": "1936825476068720649",
        "trdSkuCode": "",
        "trdPrice": "9.5"
      },
      {
        "itemId": "1936825475800285191",
        "itemName": "Roast Chix Drumstick Bento Rice",
        "itemImage": "https://resto-images-sg.s3.ap-southeast-1.amazonaws.com/c400000210/b1932351433869393925/833116-20250806.jpg",
        "itemSizeName": "Del",
        "itemType": "Item",
        "menuGroupName": "OK Bento",
        "skuId": "1936825475800285192",
        "skuCode": "",
        "price": "11.50",
        "itemPath": "1936827061708570627/1936827061784068104/a1203dde69779072f1beb4db8abb2932",
        "syncStatus": "SYNCED",
        "itemStatus": 0,
        "trdItemId": "1936825475800285191",
        "trdPosItemId": null,
        "trdItemName": "Roast Chix Drumstick Bento Rice",
        "trdItemImage": "https://resto-images-sg.s3.ap-southeast-1.amazonaws.com/image/c400000210/b1932351433869393925/20250806-25537886.jpg",
        "trdItemSizeName": "",
        "trdItemType": "Single",
        "trdSubMenuName": "OK Bento",
        "trdSkuId": "1936825475800285192",
        "trdSkuCode": "",
        "trdPrice": "11.5"
      },
      {
        "itemId": "1936825475519266818",
        "itemName": "Roast Chix XXL DBL Wings Bento Rice",
        "itemImage": "https://resto-images-sg.s3.ap-southeast-1.amazonaws.com/c400000210/b1932351433869393925/988071-20250806.jpg",
        "itemSizeName": "Del",
        "itemType": "Item",
        "menuGroupName": "OK Bento",
        "skuId": "1936825475519266819",
        "skuCode": "",
        "price": "11.50",
        "itemPath": "1936827061708570627/1936827061784068104/a1e0c52a3e195880de7713610d7db4bc",
        "syncStatus": "SYNCED",
        "itemStatus": 0,
        "trdItemId": "1936825475519266818",
        "trdPosItemId": null,
        "trdItemName": "Roast Chix XXL DBL Wings Bento Rice",
        "trdItemImage": "https://resto-images-sg.s3.ap-southeast-1.amazonaws.com/image/c400000210/b1932351433869393925/20250806-25537886.jpg",
        "trdItemSizeName": "",
        "trdItemType": "Single",
        "trdSubMenuName": "OK Bento",
        "trdSkuId": "1936825475519266819",
        "trdSkuCode": "",
        "trdPrice": "11.5"
      },
      {
        "itemId": "1936825475246637058",
        "itemName": "Roast XXL Chix Thigh Bento Rice",
        "itemImage": "https://resto-images-sg.s3.ap-southeast-1.amazonaws.com/c400000210/b1932351433869393925/306371-20250806.jpg",
        "itemSizeName": "Del",
        "itemType": "Item",
        "menuGroupName": "OK Bento",
        "skuId": "1936825475246637059",
        "skuCode": "",
        "price": "14.00",
        "itemPath": "1936827061708570627/1936827061784068104/449f4c73dec8a61bf58b5b3742d2d957",
        "syncStatus": "SYNCED",
        "itemStatus": 0,
        "trdItemId": "1936825475246637058",
        "trdPosItemId": null,
        "trdItemName": "Roast XXL Chix Thigh Bento Rice",
        "trdItemImage": "https://resto-images-sg.s3.ap-southeast-1.amazonaws.com/image/c400000210/b1932351433869393925/20250806-25537886.jpg",
        "trdItemSizeName": "",
        "trdItemType": "Single",
        "trdSubMenuName": "OK Bento",
        "trdSkuId": "1936825475246637059",
        "trdSkuCode": "",
        "trdPrice": "14"
      }
    ],
    "notBindCount": "0",
    "currency": {
      "currency": "SGD",
      "currencySymbol": "S$",
      "centNum": 2
    },
    "page": {
      "total": 78,
      "pageNo": 1,
      "pageSize": 20,
      "pageCount": 4
    }
  }
}