{
  "code": "000",
  "msg": "ok",
  "data": {
    "itemRelations": [
      {
        "itemId": "2001121512832438279",
        "itemName": "Kopi O (Black).",
        "itemImage": "https://resto-images-sg.s3.ap-southeast-1.amazonaws.com/c400000210/b1985365397653766150/510982-20251117.jpeg",
        "itemSizeName": "Hot",
        "itemType": "Item",
        "menuGroupName": "Hot Brewed.",
        "skuId": "2001121512832438280",
        "skuCode": "",
        "price": "1.60",
        "itemPath": "2001118869804355593/2001118869825327112/3a750968516dafb61ea6bb7e36e363ad",
        "syncStatus": "SYNCED",
        "itemStatus": 1,
        "trdItemId": "2001121512832438279",
        "trdPosItemId": null,
        "trdItemName": "Kopi O (Black).",
        "trdItemImage": "https://resto-images-sg.s3.ap-southeast-1.amazonaws.com/c400000210/b1985365397653766150/765193-20251117.jpeg",
        "trdItemSizeName": "",
        "trdItemType": "Single",
        "trdSubMenuName": "Hot Brewed.",
        "trdSkuId": "2001121512832438280",
        "trdSkuCode": "",
        "trdPrice": "1.6"
      },
      {
        "itemId": "2001121343952982016",
        "itemName": "Kopi (w Dawn).",
        "itemImage": "https://resto-images-sg.s3.ap-southeast-1.amazonaws.com/c400000210/b1985365397653766150/362273-20251117.jpeg",
        "itemSizeName": "Hot",
        "itemType": "Item",
        "menuGroupName": "Hot Brewed.",
        "skuId": "2001121343952982017",
        "skuCode": "",
        "price": "1.70",
        "itemPath": "2001118869804355593/2001118869825327112/0ccde865b7eb7d71dec5fe1a8bf2b464",
        "syncStatus": "SYNCED",
        "itemStatus": 1,
        "trdItemId": "2001121343952982016",
        "trdPosItemId": null,
        "trdItemName": "Kopi (w Dawn).",
        "trdItemImage": "https://resto-images-sg.s3.ap-southeast-1.amazonaws.com/c400000210/b1985365397653766150/849463-20251117.jpeg",
        "trdItemSizeName": "",
        "trdItemType": "Single",
        "trdSubMenuName": "Hot Brewed.",
        "trdSkuId": "2001121343952982017",
        "trdSkuCode": "",
        "trdPrice": "1.7"
      },
      {
        "itemId": "2001122861229871104",
        "itemName": "Kopi Si (w KOK).",
        "itemImage": "https://resto-images-sg.s3.ap-southeast-1.amazonaws.com/c400000210/b1985365397653766150/835514-20251117.jpeg",
        "itemSizeName": "Hot",
        "itemType": "Item",
        "menuGroupName": "Hot Brewed.",
        "skuId": "2001122861229871105",
        "skuCode": "",
        "price": "1.60",
        "itemPath": "2001118869804355593/2001118869825327112/6b64f59b25eb24142bab72949b1ab049",
        "syncStatus": "SYNCED",
        "itemStatus": 1,
        "trdItemId": "2001122861229871104",
        "trdPosItemId": null,
        "trdItemName": "Kopi Si (w KOK).",
        "trdItemImage": "https://resto-images-sg.s3.ap-southeast-1.amazonaws.com/c400000210/b1985365397653766150/509344-20251117.jpeg",
        "trdItemSizeName": "",
        "trdItemType": "Single",
        "trdSubMenuName": "Hot Brewed.",
        "trdSkuId": "2001122861229871105",
        "trdSkuCode": "",
        "trdPrice": "1.6"
      },
      {
        "itemId": "2001123370070249480",
        "itemName": "Tea O (Black).",
        "itemImage": "https://resto-images-sg.s3.ap-southeast-1.amazonaws.com/c400000210/b1985365397653766150/334507-20251117.jpeg",
        "itemSizeName": "Hot",
        "itemType": "Item",
        "menuGroupName": "Hot Brewed.",
        "skuId": "2001123370070249481",
        "skuCode": "",
        "price": "1.50",
        "itemPath": "2001118869804355593/2001118869825327112/ea9c5ed9950f322c4a25348bb6e132af",
        "syncStatus": "SYNCED",
        "itemStatus": 1,
        "trdItemId": "2001123370070249480",
        "trdPosItemId": null,
        "trdItemName": "Tea O (Black).",
        "trdItemImage": "https://resto-images-sg.s3.ap-southeast-1.amazonaws.com/c400000210/b1985365397653766150/142817-20251117.jpeg",
        "trdItemSizeName": "",
        "trdItemType": "Single",
        "trdSubMenuName": "Hot Brewed.",
        "trdSkuId": "2001123370070249481",
        "trdSkuCode": "",
        "trdPrice": "1.5"
      },
      {
        "itemId": "2001123129040375808",
        "itemName": "Teh (w Dawn).",
        "itemImage": "https://resto-images-sg.s3.ap-southeast-1.amazonaws.com/c400000210/b1985365397653766150/598041-20251117.jpeg",
        "itemSizeName": "Hot",
        "itemType": "Item",
        "menuGroupName": "Hot Brewed.",
        "skuId": "2001123129040375809",
        "skuCode": "",
        "price": "1.70",
        "itemPath": "2001118869804355593/2001118869825327112/eab7cea8b22a126f52775b92edb834cc",
        "syncStatus": "SYNCED",
        "itemStatus": 1,
        "trdItemId": "2001123129040375808",
        "trdPosItemId": null,
        "trdItemName": "Teh (w Dawn).",
        "trdItemImage": "https://resto-images-sg.s3.ap-southeast-1.amazonaws.com/c400000210/b1985365397653766150/453313-20251117.jpeg",
        "trdItemSizeName": "",
        "trdItemType": "Single",
        "trdSubMenuName": "Hot Brewed.",
        "trdSkuId": "2001123129040375809",
        "trdSkuCode": "",
        "trdPrice": "1.7"
      },
      {
        "itemId": "2001123626929426440",
        "itemName": "Teh Si (w KOK).",
        "itemImage": "https://resto-images-sg.s3.ap-southeast-1.amazonaws.com/c400000210/b1985365397653766150/681747-20251117.jpeg",
        "itemSizeName": "Hot",
        "itemType": "Item",
        "menuGroupName": "Hot Brewed.",
        "skuId": "2001123626929426441",
        "skuCode": "",
        "price": "1.60",
        "itemPath": "2001118869804355593/2001118869825327112/32bf6034115a185f3a1830a7c80f6c0b",
        "syncStatus": "SYNCED",
        "itemStatus": 1,
        "trdItemId": "2001123626929426440",
        "trdPosItemId": null,
        "trdItemName": "Teh Si (w KOK).",
        "trdItemImage": "https://resto-images-sg.s3.ap-southeast-1.amazonaws.com/c400000210/b1985365397653766150/069734-20251117.jpeg",
        "trdItemSizeName": "",
        "trdItemType": "Single",
        "trdSubMenuName": "Hot Brewed.",
        "trdSkuId": "2001123626929426441",
        "trdSkuCode": "",
        "trdPrice": "1.6"
      },
      {
        "itemId": "2001120865529696262",
        "itemName": "Yuan Yang (Tea+Kopi).",
        "itemImage": "https://resto-images-sg.s3.ap-southeast-1.amazonaws.com/c400000210/b1985365397653766150/356634-20251117.jpeg",
        "itemSizeName": "Hot",
        "itemType": "Item",
        "menuGroupName": "Hot Brewed.",
        "skuId": "2001120865529696263",
        "skuCode": "",
        "price": "2.00",
        "itemPath": "2001118869804355593/2001118869825327112/7bce573d74fb0345ed05f3da471e67a3",
        "syncStatus": "SYNCED",
        "itemStatus": 1,
        "trdItemId": "2001120865529696262",
        "trdPosItemId": null,
        "trdItemName": "Yuan Yang (Tea+Kopi).",
        "trdItemImage": "https://resto-images-sg.s3.ap-southeast-1.amazonaws.com/c400000210/b1985365397653766150/758858-20251117.jpeg",
        "trdItemSizeName": "",
        "trdItemType": "Single",
        "trdSubMenuName": "Hot Brewed.",
        "trdSkuId": "2001120865529696263",
        "trdSkuCode": "",
        "trdPrice": "2"
      },
      {
        "itemId": "2001124698733477888",
        "itemName": "Milo.",
        "itemImage": "https://resto-images-sg.s3.ap-southeast-1.amazonaws.com/c400000210/b1985365397653766150/349222-20251117.jpeg",
        "itemSizeName": "Hot",
        "itemType": "Item",
        "menuGroupName": "Hot Brewed.",
        "skuId": "2001124698733477889",
        "skuCode": "",
        "price": "1.60",
        "itemPath": "2001118869804355593/2001118869825327112/c8fba0d940827b7dd385a0e2b4da5c76",
        "syncStatus": "SYNCED",
        "itemStatus": 1,
        "trdItemId": "2001124698733477888",
        "trdPosItemId": null,
        "trdItemName": "Milo.",
        "trdItemImage": "https://resto-images-sg.s3.ap-southeast-1.amazonaws.com/c400000210/b1985365397653766150/678838-20251117.jpeg",
        "trdItemSizeName": "",
        "trdItemType": "Single",
        "trdSubMenuName": "Hot Brewed.",
        "trdSkuId": "2001124698733477889",
        "trdSkuCode": "",
        "trdPrice": "1.6"
      },
      {
        "itemId": "1985368666316996610",
        "itemName": "Chrysanthemum",
        "itemImage": "https://resto-images-sg.s3.ap-southeast-1.amazonaws.com/c400000210/b1985365397653766150/120722-20251117.jpeg",
        "itemSizeName": "Hot",
        "itemType": "Item",
        "menuGroupName": "Hot Brewed.",
        "skuId": "1985368666316996611",
        "skuCode": "",
        "price": "1.30",
        "itemPath": "2001118869804355593/2001118869825327112/5a61bc52cfa4cdecb8d63a9f59938f2e",
        "syncStatus": "SYNCED",
        "itemStatus": 1,
        "trdItemId": "1985368666316996610",
        "trdPosItemId": null,
        "trdItemName": "Chrysanthemum",
        "trdItemImage": "https://resto-images-sg.s3.ap-southeast-1.amazonaws.com/c400000210/b1985365397653766150/639406-20251117.jpeg",
        "trdItemSizeName": "",
        "trdItemType": "Single",
        "trdSubMenuName": "Hot Brewed.",
        "trdSkuId": "1985368666316996611",
        "trdSkuCode": "",
        "trdPrice": "1.7"
      },
      {
        "itemId": "2001125364314996737",
        "itemName": "Ginger Milk.",
        "itemImage": "https://resto-images-sg.s3.ap-southeast-1.amazonaws.com/c400000210/b1985365397653766150/658030-20251117.jpeg",
        "itemSizeName": "Hot",
        "itemType": "Item",
        "menuGroupName": "Hot Brewed.",
        "skuId": "2001125364314996738",
        "skuCode": "",
        "price": "1.70",
        "itemPath": "2001118869804355593/2001118869825327112/4186d7f38d65c07fed3a5d5fd6d609f6",
        "syncStatus": "SYNCED",
        "itemStatus": 1,
        "trdItemId": "2001125364314996737",
        "trdPosItemId": null,
        "trdItemName": "Ginger Milk.",
        "trdItemImage": "https://resto-images-sg.s3.ap-southeast-1.amazonaws.com/c400000210/b1985365397653766150/614372-20251117.jpeg",
        "trdItemSizeName": "",
        "trdItemType": "Single",
        "trdSubMenuName": "Hot Brewed.",
        "trdSkuId": "2001125364314996738",
        "trdSkuCode": "",
        "trdPrice": "1.7"
      },
      {
        "itemId": "2001125529654460416",
        "itemName": "Ginger.",
        "itemImage": "https://resto-images-sg.s3.ap-southeast-1.amazonaws.com/c400000210/b1985365397653766150/131909-20251117.jpeg",
        "itemSizeName": "Hot",
        "itemType": "Item",
        "menuGroupName": "Hot Brewed.",
        "skuId": "2001125529654460417",
        "skuCode": "",
        "price": "1.70",
        "itemPath": "2001118869804355593/2001118869825327112/cee7f8c1a1d75839f5f89ae899c22cca",
        "syncStatus": "SYNCED",
        "itemStatus": 1,
        "trdItemId": "2001125529654460416",
        "trdPosItemId": null,
        "trdItemName": "Ginger.",
        "trdItemImage": "https://resto-images-sg.s3.ap-southeast-1.amazonaws.com/c400000210/b1985365397653766150/527043-20251117.jpeg",
        "trdItemSizeName": "",
        "trdItemType": "Single",
        "trdSubMenuName": "Hot Brewed.",
        "trdSkuId": "2001125529654460417",
        "trdSkuCode": "",
        "trdPrice": "1.7"
      },
      {
        "itemId": "2001125805559971844",
        "itemName": "Barley Hot.",
        "itemImage": "https://resto-images-sg.s3.ap-southeast-1.amazonaws.com/c400000210/b1985365397653766150/286246-20251117.jpeg",
        "itemSizeName": "Hot",
        "itemType": "Item",
        "menuGroupName": "Hot Brewed.",
        "skuId": "2001125805559971845",
        "skuCode": "",
        "price": "1.70",
        "itemPath": "2001118869804355593/2001118869825327112/a92ec57addd330146fbfcd201b40e76c",
        "syncStatus": "SYNCED",
        "itemStatus": 1,
        "trdItemId": "2001125805559971844",
        "trdPosItemId": null,
        "trdItemName": "Barley Hot.",
        "trdItemImage": "https://resto-images-sg.s3.ap-southeast-1.amazonaws.com/c400000210/b1985365397653766150/524850-20251117.jpeg",
        "trdItemSizeName": "",
        "trdItemType": "Single",
        "trdSubMenuName": "Hot Brewed.",
        "trdSkuId": "2001125805559971845",
        "trdSkuCode": "",
        "trdPrice": "1.7"
      },
      {
        "itemId": "2001134009387913225",
        "itemName": "Kopi O Ice (Black).",
        "itemImage": "https://resto-images-sg.s3.ap-southeast-1.amazonaws.com/c400000210/b1985365397653766150/353673-20251117.jpeg",
        "itemSizeName": "Ice",
        "itemType": "Item",
        "menuGroupName": "Cold Brewed.",
        "skuId": "2001134009387913226",
        "skuCode": "",
        "price": "2.20",
        "itemPath": "2001118869804355593/2001118869850492937/dbedacf45c64a94876eae6e040da999c",
        "syncStatus": "SYNCED",
        "itemStatus": 1,
        "trdItemId": "2001134009387913225",
        "trdPosItemId": null,
        "trdItemName": "Kopi O Ice (Black).",
        "trdItemImage": "https://resto-images-sg.s3.ap-southeast-1.amazonaws.com/c400000210/b1985365397653766150/221912-20251117.jpeg",
        "trdItemSizeName": "",
        "trdItemType": "Single",
        "trdSubMenuName": "Cold Brewed.",
        "trdSkuId": "2001134009387913226",
        "trdSkuCode": "",
        "trdPrice": "2.2"
      },
      {
        "itemId": "2001133599088513028",
        "itemName": "Kopi Si Ice (w KOK).",
        "itemImage": "https://resto-images-sg.s3.ap-southeast-1.amazonaws.com/c400000210/b1985365397653766150/359353-20251117.jpeg",
        "itemSizeName": "Ice",
        "itemType": "Item",
        "menuGroupName": "Cold Brewed.",
        "skuId": "2001133599088513029",
        "skuCode": "",
        "price": "2.30",
        "itemPath": "2001118869804355593/2001118869850492937/cc6c36c48396c246dda59624e317fd55",
        "syncStatus": "SYNCED",
        "itemStatus": 1,
        "trdItemId": "2001133599088513028",
        "trdPosItemId": null,
        "trdItemName": "Kopi Si Ice (w KOK).",
        "trdItemImage": "https://resto-images-sg.s3.ap-southeast-1.amazonaws.com/c400000210/b1985365397653766150/773607-20251117.jpeg",
        "trdItemSizeName": "",
        "trdItemType": "Single",
        "trdSubMenuName": "Cold Brewed.",
        "trdSkuId": "2001133599088513029",
        "trdSkuCode": "",
        "trdPrice": "2.3"
      },
      {
        "itemId": "2001134597886509063",
        "itemName": "Kopi Ice (w Dawn).",
        "itemImage": "https://resto-images-sg.s3.ap-southeast-1.amazonaws.com/c400000210/b1985365397653766150/487902-20251117.jpeg",
        "itemSizeName": "Ice",
        "itemType": "Item",
        "menuGroupName": "Cold Brewed.",
        "skuId": "2001134597886509064",
        "skuCode": "",
        "price": "2.60",
        "itemPath": "2001118869804355593/2001118869850492937/928a28a16d9f3f1888c7efb893ee572d",
        "syncStatus": "SYNCED",
        "itemStatus": 1,
        "trdItemId": "2001134597886509063",
        "trdPosItemId": null,
        "trdItemName": "Kopi Ice (w Dawn).",
        "trdItemImage": "https://resto-images-sg.s3.ap-southeast-1.amazonaws.com/c400000210/b1985365397653766150/020459-20251117.jpeg",
        "trdItemSizeName": "",
        "trdItemType": "Single",
        "trdSubMenuName": "Cold Brewed.",
        "trdSkuId": "2001134597886509064",
        "trdSkuCode": "",
        "trdPrice": "2.6"
      },
      {
        "itemId": "2001133389465587721",
        "itemName": "Tea O Ice (Black).",
        "itemImage": "https://resto-images-sg.s3.ap-southeast-1.amazonaws.com/c400000210/b1985365397653766150/522311-20251117.jpeg",
        "itemSizeName": "Ice",
        "itemType": "Item",
        "menuGroupName": "Cold Brewed.",
        "skuId": "2001133389465587722",
        "skuCode": "",
        "price": "1.50",
        "itemPath": "2001118869804355593/2001118869850492937/fc1d41c75884d3588dece2c38f1c5eec",
        "syncStatus": "SYNCED",
        "itemStatus": 1,
        "trdItemId": "2001133389465587721",
        "trdPosItemId": null,
        "trdItemName": "Tea O Ice (Black).",
        "trdItemImage": "https://resto-images-sg.s3.ap-southeast-1.amazonaws.com/c400000210/b1985365397653766150/125109-20251117.jpeg",
        "trdItemSizeName": "",
        "trdItemType": "Single",
        "trdSubMenuName": "Cold Brewed.",
        "trdSkuId": "2001133389465587722",
        "trdSkuCode": "",
        "trdPrice": "1.5"
      },
      {
        "itemId": "2001133108707262472",
        "itemName": "Teh Ice  (w Dawn).",
        "itemImage": "https://resto-images-sg.s3.ap-southeast-1.amazonaws.com/c400000210/b1985365397653766150/645674-20251117.jpeg",
        "itemSizeName": "Ice",
        "itemType": "Item",
        "menuGroupName": "Cold Brewed.",
        "skuId": "2001133108707262473",
        "skuCode": "",
        "price": "2.60",
        "itemPath": "2001118869804355593/2001118869850492937/3b1c5a00a9c5cb5a99f7ccd78aaecb75",
        "syncStatus": "SYNCED",
        "itemStatus": 1,
        "trdItemId": "2001133108707262472",
        "trdPosItemId": null,
        "trdItemName": "Teh Ice  (w Dawn).",
        "trdItemImage": "https://resto-images-sg.s3.ap-southeast-1.amazonaws.com/c400000210/b1985365397653766150/718005-20251117.jpeg",
        "trdItemSizeName": "",
        "trdItemType": "Single",
        "trdSubMenuName": "Cold Brewed.",
        "trdSkuId": "2001133108707262473",
        "trdSkuCode": "",
        "trdPrice": "2.6"
      },
      {
        "itemId": "2001132882638475265",
        "itemName": "Teh Si Ice(w KOK).",
        "itemImage": "https://resto-images-sg.s3.ap-southeast-1.amazonaws.com/c400000210/b1985365397653766150/353569-20251117.jpeg",
        "itemSizeName": "Ice",
        "itemType": "Item",
        "menuGroupName": "Cold Brewed.",
        "skuId": "2001132882638475266",
        "skuCode": "",
        "price": "2.30",
        "itemPath": "2001118869804355593/2001118869850492937/6401025501ad810b29c7bfbd4c226797",
        "syncStatus": "SYNCED",
        "itemStatus": 1,
        "trdItemId": "2001132882638475265",
        "trdPosItemId": null,
        "trdItemName": "Teh Si Ice(w KOK).",
        "trdItemImage": "https://resto-images-sg.s3.ap-southeast-1.amazonaws.com/c400000210/b1985365397653766150/590321-20251117.jpeg",
        "trdItemSizeName": "",
        "trdItemType": "Single",
        "trdSubMenuName": "Cold Brewed.",
        "trdSkuId": "2001132882638475266",
        "trdSkuCode": "",
        "trdPrice": "2.3"
      },
      {
        "itemId": "2001132510712762369",
        "itemName": "Yuan Yang Ice (Tea+Kopi).",
        "itemImage": "https://resto-images-sg.s3.ap-southeast-1.amazonaws.com/c400000210/b1985365397653766150/925187-20251117.jpeg",
        "itemSizeName": "Ice",
        "itemType": "Item",
        "menuGroupName": "Cold Brewed.",
        "skuId": "2001132510712762370",
        "skuCode": "",
        "price": "2.80",
        "itemPath": "2001118869804355593/2001118869850492937/d97380bcb35934d7fe7b01e273ef7367",
        "syncStatus": "SYNCED",
        "itemStatus": 1,
        "trdItemId": "2001132510712762369",
        "trdPosItemId": null,
        "trdItemName": "Yuan Yang Ice (Tea+Kopi).",
        "trdItemImage": "https://resto-images-sg.s3.ap-southeast-1.amazonaws.com/c400000210/b1985365397653766150/800191-20251117.jpeg",
        "trdItemSizeName": "",
        "trdItemType": "Single",
        "trdSubMenuName": "Cold Brewed.",
        "trdSkuId": "2001132510712762370",
        "trdSkuCode": "",
        "trdPrice": "2.8"
      },
      {
        "itemId": "2001132389178609670",
        "itemName": "Milo Ice.",
        "itemImage": "https://resto-images-sg.s3.ap-southeast-1.amazonaws.com/c400000210/b1985365397653766150/563910-20251117.jpeg",
        "itemSizeName": "Ice",
        "itemType": "Item",
        "menuGroupName": "Cold Brewed.",
        "skuId": "2001132389178609671",
        "skuCode": "",
        "price": "3.50",
        "itemPath": "2001118869804355593/2001118869850492937/94bb6570a71680b9c6b3fddbdc6f02f9",
        "syncStatus": "SYNCED",
        "itemStatus": 1,
        "trdItemId": "2001132389178609670",
        "trdPosItemId": null,
        "trdItemName": "Milo Ice.",
        "trdItemImage": "https://resto-images-sg.s3.ap-southeast-1.amazonaws.com/c400000210/b1985365397653766150/145472-20251117.jpeg",
        "trdItemSizeName": "",
        "trdItemType": "Single",
        "trdSubMenuName": "Cold Brewed.",
        "trdSkuId": "2001132389178609671",
        "trdSkuCode": "",
        "trdPrice": "3.5"
      }
    ],
    "notBindCount": "0",
    "currency": {
      "currency": "SGD",
      "currencySymbol": "S$",
      "centNum": 2
    },
    "page": {
      "total": 43,
      "pageNo": 1,
      "pageSize": 20,
      "pageCount": 3
    }
  }
}